{
  "cordova-plugin-whitelist": {
    "source": {
      "type": "registry",
      "id": "https://github.com/apache/cordova-plugin-whitelist"
    },
    "is_top_level": true,
    "variables": {}
  },
  "phonegap-plugin-image-capture": {
    "source": {
      "type": "registry",
      "id": "phonegap-plugin-image-capture"
    },
    "is_top_level": true,
    "variables": {}
  },
  "phonegap-plugin-media-stream": {
    "source": {
      "type": "registry",
      "id": "phonegap-plugin-media-stream@^1.2.0"
    },
    "is_top_level": false,
    "variables": {}
  },
  "es6-promise-plugin": {
    "source": {
      "type": "registry",
      "id": "es6-promise-plugin"
    },
    "is_top_level": false,
    "variables": {}
  },
  "cordova-plugin-compat": {
    "source": {
      "type": "registry",
      "id": "cordova-plugin-compat@1.2.0"
    },
    "is_top_level": true,
    "variables": {}
  },
  "cordova-plugin-app-preferences": {
    "source": {
      "type": "registry",
      "id": "https://github.com/apla/me.apla.cordova.app-preferences"
    },
    "is_top_level": true,
    "variables": {}
  },
  "org.apache.cordova.geolocation": {
    "source": {
      "type": "registry",
      "id": "org.apache.cordova.geolocation"
    },
    "is_top_level": true,
    "variables": {}
  },
  "cordova-plugin-battery-status": {
    "source": {
      "type": "registry",
      "id": "cordova-plugin-battery-status"
    },
    "is_top_level": true,
    "variables": {}
  },
  "cordova-plugin-contacts": {
    "source": {
      "type": "registry",
      "id": "cordova-plugin-contacts@3.0.1"
    },
    "is_top_level": true,
    "variables": {}
  },
  "cordova-plugin-device-motion": {
    "source": {
      "type": "registry",
      "id": "cordova-plugin-device-motion"
    },
    "is_top_level": true,
    "variables": {}
  },
  "cordova-plugin-device-orientation": {
    "source": {
      "type": "registry",
      "id": "https://github.com/apache/cordova-plugin-device-orientation"
    },
    "is_top_level": true,
    "variables": {}
  },
  "cordova-plugin-geolocation": {
    "source": {
      "type": "registry",
      "id": "cordova-plugin-geolocation@4.0.1"
    },
    "is_top_level": true,
    "variables": {}
  },
  "cordova-plugin-globalization": {
    "source": {
      "type": "registry",
      "id": "cordova-plugin-globalization"
    },
    "is_top_level": true,
    "variables": {}
  },
  "cordova-plugin-inappbrowser": {
    "source": {
      "type": "registry",
      "id": "cordova-plugin-inappbrowser@3.0.0"
    },
    "is_top_level": true,
    "variables": {}
  },
  "cordova-plugin-network-information": {
    "source": {
      "type": "registry",
      "id": "cordova-plugin-network-information"
    },
    "is_top_level": true,
    "variables": {}
  },
  "cordova-plugin-splashscreen": {
    "source": {
      "type": "registry",
      "id": "cordova-plugin-splashscreen@5.0.2"
    },
    "is_top_level": true,
    "variables": {}
  },
  "cordova-plugin-camera": {
    "source": {
      "type": "registry",
      "id": "https://github.com/apache/cordova-plugin-camera"
    },
    "is_top_level": true,
    "variables": {}
  },
  "cordova-plugin-file": {
    "source": {
      "type": "registry",
      "id": "https://github.com/apache/cordova-plugin-file"
    },
    "is_top_level": true,
    "variables": {}
  },
  "cordova-plugin-media-capture": {
    "source": {
      "type": "registry",
      "id": "https://github.com/apache/cordova-plugin-media-capture"
    },
    "is_top_level": true,
    "variables": {}
  },
  "cordova-plugin-device": {
    "source": {
      "type": "registry",
      "id": "https://github.com/apache/cordova-plugin-device"
    },
    "is_top_level": true,
    "variables": {}
  },
  "cordova-plugin-dialogs": {
    "source": {
      "type": "registry",
      "id": "https://github.com/apache/cordova-plugin-dialogs"
    },
    "is_top_level": true,
    "variables": {}
  },
  "cordova-plugin-file-transfer": {
    "source": {
      "type": "registry",
      "id": "https://github.com/apache/cordova-plugin-file-transfer"
    },
    "is_top_level": true,
    "variables": {}
  }
}